Capítulo 2 Começando com o R | Bioestatística aplicada aos ecossistemas agrícolas e naturais
…
2.6.2 Importando arquivos do Excel

Para importar arquivos do Excel, existem a função read_excel do pacote readxl.

bflor <- readxl::read_excel("data/bflor.xlsx")
bflor

## # A tibble: 54 × 3
##    especie     n comprimento
##    <chr>   <dbl>       <dbl>
##  1 Hb          1        47.1
##  2 Hb          2        46.8
##  3 Hb          3        46.8
##  4 Hb          4        47.1
##  5 Hb          5        46.7
##  6 Hb          6        47.4
##  7 Hb          7        46.4
##  8 Hb          8        46.6
##  9 Hb          9        48.1
## 10 Hb         10        48.3
## # … with 44 more rows
…
